alu/rotate/RR.vcd
$date
	Thu Apr 15 15:40:22 2021
$end
$version
	Icarus Verilog
$end
$timescale
	100ps
$end
$scope module RR_tb $end
$var wire 32 ! in [31:0] $end
$var wire 5 " rotate_amt [4:0] $end
$var wire 32 # out [31:0] $end
$var integer 32 $ i [31:0] $end
$var integer 32 % j [31:0] $end
$scope module RR $end
$var wire 32 & in [31:0] $end
$var wire 5 ' rotate_amt [4:0] $end
$var wire 32 ( r8 [31:0] $end
$var wire 32 ) r4 [31:0] $end
$var wire 32 * r2 [31:0] $end
$var wire 32 + r16 [31:0] $end
$var wire 32 , r1 [31:0] $end
$var wire 32 - out [31:0] $end
$var wire 32 . mux4 [31:0] $end
$var wire 32 / mux3 [31:0] $end
$var wire 32 0 mux2 [31:0] $end
$var wire 32 1 mux1 [31:0] $end
$scope module fifth_rotate $end
$var wire 32 2 in [31:0] $end
$var wire 32 3 out [31:0] $end
$var wire 31 4 body [30:0] $end
$upscope $end
$scope module first_rotate $end
$var wire 32 5 in [31:0] $end
$var wire 32 6 out [31:0] $end
$var wire 16 7 body [15:0] $end
$upscope $end
$scope module fourth_rotate $end
$var wire 32 8 in [31:0] $end
$var wire 32 9 out [31:0] $end
$var wire 30 : body [29:0] $end
$upscope $end
$scope module second_rotate $end
$var wire 32 ; in [31:0] $end
$var wire 32 < out [31:0] $end
$var wire 24 = body [23:0] $end
$upscope $end
$scope module third_rotate $end
$var wire 32 > in [31:0] $end
$var wire 32 ? out [31:0] $end
$var wire 28 @ body [27:0] $end
$upscope $end
$upscope $end
$upscope $end
$enddefinitions $end
#0
$dumpvars
b0 @
b0 ?
b0 >
b0 =
b0 <
b0 ;
b0 :
b0 9
b0 8
b0 7
b0 6
b0 5
b0 4
b0 3
b0 2
b0 1
b0 0
b0 /
b0 .
b0 -
b0 ,
b0 +
b0 *
b0 )
b0 (
bx '
b0 &
bx %
b0 $
b0 #
bx "
b0 !
$end
#200
b0 "
b0 '
b0 %
#400
b1 "
b1 '
b1 %
#600
b10 "
b10 '
b10 %
#800
b11 "
b11 '
b11 %
#1000
b100 "
b100 '
b100 %
#1200
b101 "
b101 '
b101 %
#1400
b110 "
b110 '
b110 %
#1600
b111 "
b111 '
b111 %
#1800
b1000 "
b1000 '
b1000 %
#2000
b1001 "
b1001 '
b1001 %
#2200
b1010 "
b1010 '
b1010 %
#2400
b1011 "
b1011 '
b1011 %
#2600
b1100 "
b1100 '
b1100 %
#2800
b1101 "
b1101 '
b1101 %
#3000
b1110 "
b1110 '
b1110 %
#3200
b1111 "
b1111 '
b1111 %
#3400
b10000 "
b10000 '
b10000 %
#3600
b10001 "
b10001 '
b10001 %
#3800
b10010 "
b10010 '
b10010 %
#4000
b10011 "
b10011 '
b10011 %
#4200
b10100 "
b10100 '
b10100 %
#4400
b10101 "
b10101 '
b10101 %
#4600
b10110 "
b10110 '
b10110 %
#4800
b10111 "
b10111 '
b10111 %
#5000
b11000 "
b11000 '
b11000 %
#5200
b11001 "
b11001 '
b11001 %
#5400
b11010 "
b11010 '
b11010 %
#5600
b11011 "
b11011 '
b11011 %
#5800
b11100 "
b11100 '
b11100 %
#6000
b11101 "
b11101 '
b11101 %
#6200
b11110 "
b11110 '
b11110 %
#6400
b11111 "
b11111 '
b11111 %
#6600
b1 #
b1 -
b10000000000000000000000000000000 ,
b10000000000000000000000000000000 3
b1 .
b1 2
b1000000000000000000000000000000 *
b1000000000000000000000000000000 9
b1 /
b1 8
b10000000000000000000000000000 )
b10000000000000000000000000000 ?
b1000000000000000000000000 (
b1000000000000000000000000 <
b1 0
b1 >
b1 1
b1 ;
b10000000000000000 +
b10000000000000000 6
b0 "
b0 '
b1 !
b1 $
b1 &
b1 5
b100000 %
#6800
b0 %
#7000
b10000000000000000000000000000000 #
b10000000000000000000000000000000 -
b1 "
b1 '
b1 %
#7200
b100000000000000000000000000000 4
b100000000000000000000000000000 ,
b100000000000000000000000000000 3
b1000000000000000000000000000000 .
b1000000000000000000000000000000 2
b1000000000000000000000000000000 #
b1000000000000000000000000000000 -
b10 "
b10 '
b10 %
#7400
b100000000000000000000000000000 #
b100000000000000000000000000000 -
b11 "
b11 '
b11 %
#7600
b100000000000000000000000000 :
b100000000000000000000000000 *
b100000000000000000000000000 9
b1000000000000000000000000000 4
b1000000000000000000000000000 ,
b1000000000000000000000000000 3
b10000000000000000000000000000 /
b10000000000000000000000000000 8
b10000000000000000000000000000 .
b10000000000000000000000000000 2
b10000000000000000000000000000 #
b10000000000000000000000000000 -
b100 "
b100 '
b100 %
#7800
b1000000000000000000000000000 #
b1000000000000000000000000000 -
b101 "
b101 '
b101 %
#8000
b10000000000000000000000000 ,
b10000000000000000000000000 3
b10000000000000000000000000 4
b100000000000000000000000000 .
b100000000000000000000000000 2
b100000000000000000000000000 #
b100000000000000000000000000 -
b110 "
b110 '
b110 %
#8200
b10000000000000000000000000 #
b10000000000000000000000000 -
b111 "
b111 '
b111 %
#8400
b100000000000000000000 @
b100000000000000000000 )
b100000000000000000000 ?
b10000000000000000000000 :
b10000000000000000000000 *
b10000000000000000000000 9
b100000000000000000000000 ,
b100000000000000000000000 3
b100000000000000000000000 4
b1000000000000000000000000 0
b1000000000000000000000000 >
b1000000000000000000000000 /
b1000000000000000000000000 8
b1000000000000000000000000 .
b1000000000000000000000000 2
b1000000000000000000000000 #
b1000000000000000000000000 -
b1000 "
b1000 '
b1000 %
#8600
b100000000000000000000000 #
b100000000000000000000000 -
b1001 "
b1001 '
b1001 %
#8800
b1000000000000000000000 ,
b1000000000000000000000 3
b1000000000000000000000 4
b10000000000000000000000 .
b10000000000000000000000 2
b10000000000000000000000 #
b10000000000000000000000 -
b1010 "
b1010 '
b1010 %
#9000
b1000000000000000000000 #
b1000000000000000000000 -
b1011 "
b1011 '
b1011 %
#9200
b1000000000000000000 *
b1000000000000000000 9
b1000000000000000000 :
b10000000000000000000 ,
b10000000000000000000 3
b10000000000000000000 4
b100000000000000000000 /
b100000000000000000000 8
b100000000000000000000 .
b100000000000000000000 2
b100000000000000000000 #
b100000000000000000000 -
b1100 "
b1100 '
b1100 %
#9400
b10000000000000000000 #
b10000000000000000000 -
b1101 "
b1101 '
b1101 %
#9600
b100000000000000000 ,
b100000000000000000 3
b100000000000000000 4
b1000000000000000000 .
b1000000000000000000 2
b1000000000000000000 #
b1000000000000000000 -
b1110 "
b1110 '
b1110 %
#9800
b100000000000000000 #
b100000000000000000 -
b1111 "
b1111 '
b1111 %
#10000
b100000000 =
b100000000 (
b100000000 <
b1000000000000 @
b1000000000000 )
b1000000000000 ?
b100000000000000 *
b100000000000000 9
b100000000000000 :
b1000000000000000 ,
b1000000000000000 3
b1000000000000000 4
b10000000000000000 1
b10000000000000000 ;
b10000000000000000 0
b10000000000000000 >
b10000000000000000 /
b10000000000000000 8
b10000000000000000 .
b10000000000000000 2
b10000000000000000 #
b10000000000000000 -
b10000 "
b10000 '
b10000 %
#10200
b1000000000000000 #
b1000000000000000 -
b10001 "
b10001 '
b10001 %
#10400
b10000000000000 ,
b10000000000000 3
b10000000000000 4
b100000000000000 .
b100000000000000 2
b100000000000000 #
b100000000000000 -
b10010 "
b10010 '
b10010 %
#10600
b10000000000000 #
b10000000000000 -
b10011 "
b10011 '
b10011 %
#10800
b10000000000 *
b10000000000 9
b10000000000 :
b100000000000 ,
b100000000000 3
b100000000000 4
b1000000000000 /
b1000000000000 8
b1000000000000 .
b1000000000000 2
b1000000000000 #
b1000000000000 -
b10100 "
b10100 '
b10100 %
#11000
b100000000000 #
b100000000000 -
b10101 "
b10101 '
b10101 %
#11200
b1000000000 ,
b1000000000 3
b1000000000 4
b10000000000 .
b10000000000 2
b10000000000 #
b10000000000 -
b10110 "
b10110 '
b10110 %
#11400
b1000000000 #
b1000000000 -
b10111 "
b10111 '
b10111 %
#11600
b10000 )
b10000 ?
b10000 @
b1000000 *
b1000000 9
b1000000 :
b10000000 ,
b10000000 3
b10000000 4
b100000000 0
b100000000 >
b100000000 /
b100000000 8
b100000000 .
b100000000 2
b100000000 #
b100000000 -
b11000 "
b11000 '
b11000 %
#11800
b10000000 #
b10000000 -
b11001 "
b11001 '
b11001 %
#12000
b100000 ,
b100000 3
b100000 4
b1000000 .
b1000000 2
b1000000 #
b1000000 -
b11010 "
b11010 '
b11010 %
#12200
b100000 #
b100000 -
b11011 "
b11011 '
b11011 %
#12400
b100 *
b100 9
b100 :
b1000 ,
b1000 3
b1000 4
b10000 /
b10000 8
b10000 .
b10000 2
b10000 #
b10000 -
b11100 "
b11100 '
b11100 %
#12600
b1000 #
b1000 -
b11101 "
b11101 '
b11101 %
#12800
b10 ,
b10 3
b10 4
b100 .
b100 2
b100 #
b100 -
b11110 "
b11110 '
b11110 %
#13000
b10 #
b10 -
b11111 "
b11111 '
b11111 %
#13200
b0 @
b100000000000000000000000000000 )
b100000000000000000000000000000 ?
b10000000000000000000000000000000 *
b10000000000000000000000000000000 9
b0 :
b1 ,
b1 3
b1 4
b0 =
b10000000000000000000000000 (
b10000000000000000000000000 <
b10 0
b10 >
b10 /
b10 8
b10 .
b10 2
b10 #
b10 -
b10 1
b10 ;
b100000000000000000 +
b100000000000000000 6
b0 "
b0 '
b10 !
b10 $
b10 &
b10 5
b100000 %
#13400
b0 %
#13600
b1 #
b1 -
b1 "
b1 '
b1 %
#13800
b1000000000000000000000000000000 ,
b1000000000000000000000000000000 3
b1000000000000000000000000000000 4
b10000000000000000000000000000000 .
b10000000000000000000000000000000 2
b10000000000000000000000000000000 #
b10000000000000000000000000000000 -
b10 "
b10 '
b10 %
#14000
b1000000000000000000000000000000 #
b1000000000000000000000000000000 -
b11 "
b11 '
b11 %
#14200
b1000000000000000000000000000 :
b1000000000000000000000000000 *
b1000000000000000000000000000 9
b10000000000000000000000000000 ,
b10000000000000000000000000000 3
b10000000000000000000000000000 4
b100000000000000000000000000000 /
b100000000000000000000000000000 8
b100000000000000000000000000000 .
b100000000000000000000000000000 2
b100000000000000000000000000000 #
b100000000000000000000000000000 -
b100 "
b100 '
b100 %
#14400
b10000000000000000000000000000 #
b10000000000000000000000000000 -
b101 "
b101 '
b101 %
#14600
b100000000000000000000000000 ,
b100000000000000000000000000 3
b100000000000000000000000000 4
b1000000000000000000000000000 .
b1000000000000000000000000000 2
b1000000000000000000000000000 #
b1000000000000000000000000000 -
b110 "
b110 '
b110 %
#14800
b100000000000000000000000000 #
b100000000000000000000000000 -
b111 "
b111 '
b111 %
#15000
b1000000000000000000000 @
b1000000000000000000000 )
b1000000000000000000000 ?
b100000000000000000000000 :
b100000000000000000000000 *
b100000000000000000000000 9
b1000000000000000000000000 ,
b1000000000000000000000000 3
b1000000000000000000000000 4
b10000000000000000000000000 0
b10000000000000000000000000 >
b10000000000000000000000000 /
b10000000000000000000000000 8
b10000000000000000000000000 .
b10000000000000000000000000 2
b10000000000000000000000000 #
b10000000000000000000000000 -
b1000 "
b1000 '
b1000 %
#15200
b1000000000000000000000000 #
b1000000000000000000000000 -
b1001 "
b1001 '
b1001 %
#15400
b10000000000000000000000 ,
b10000000000000000000000 3
b10000000000000000000000 4
b100000000000000000000000 .
b100000000000000000000000 2
b100000000000000000000000 #
b100000000000000000000000 -
b1010 "
b1010 '
b1010 %
#15600
b10000000000000000000000 #
b10000000000000000000000 -
b1011 "
b1011 '
b1011 %
#15800
b10000000000000000000 *
b10000000000000000000 9
b10000000000000000000 :
b100000000000000000000 ,
b100000000000000000000 3
b100000000000000000000 4
b1000000000000000000000 /
b1000000000000000000000 8
b1000000000000000000000 .
b1000000000000000000000 2
b1000000000000000000000 #
b1000000000000000000000 -
b1100 "
b1100 '
b1100 %
#16000
b100000000000000000000 #
b100000000000000000000 -
b1101 "
b1101 '
b1101 %
#16200
b1000000000000000000 ,
b1000000000000000000 3
b1000000000000000000 4
b10000000000000000000 .
b10000000000000000000 2
b10000000000000000000 #
b10000000000000000000 -
b1110 "
b1110 '
b1110 %
#16400
b1000000000000000000 #
b1000000000000000000 -
b1111 "
b1111 '
b1111 %
#16600
b1000000000 =
b1000000000 (
b1000000000 <
b10000000000000 @
b10000000000000 )
b10000000000000 ?
b1000000000000000 *
b1000000000000000 9
b1000000000000000 :
b10000000000000000 ,
b10000000000000000 3
b10000000000000000 4
b100000000000000000 1
b100000000000000000 ;
b100000000000000000 0
b100000000000000000 >
b100000000000000000 /
b100000000000000000 8
b100000000000000000 .
b100000000000000000 2
b100000000000000000 #
b100000000000000000 -
b10000 "
b10000 '
b10000 %
#16800
b10000000000000000 #
b10000000000000000 -
b10001 "
b10001 '
b10001 %
#17000
b100000000000000 ,
b100000000000000 3
b100000000000000 4
b1000000000000000 .
b1000000000000000 2
b1000000000000000 #
b1000000000000000 -
b10010 "
b10010 '
b10010 %
#17200
b100000000000000 #
b100000000000000 -
b10011 "
b10011 '
b10011 %
#17400
b100000000000 *
b100000000000 9
b100000000000 :
b1000000000000 ,
b1000000000000 3
b1000000000000 4
b10000000000000 /
b10000000000000 8
b10000000000000 .
b10000000000000 2
b10000000000000 #
b10000000000000 -
b10100 "
b10100 '
b10100 %
#17600
b1000000000000 #
b1000000000000 -
b10101 "
b10101 '
b10101 %
#17800
b10000000000 ,
b10000000000 3
b10000000000 4
b100000000000 .
b100000000000 2
b100000000000 #
b100000000000 -
b10110 "
b10110 '
b10110 %
#18000
b10000000000 #
b10000000000 -
b10111 "
b10111 '
b10111 %
#18200
b100000 )
b100000 ?
b100000 @
b10000000 *
b10000000 9
b10000000 :
b100000000 ,
b100000000 3
b100000000 4
b1000000000 0
b1000000000 >
b1000000000 /
b1000000000 8
b1000000000 .
b1000000000 2
b1000000000 #
b1000000000 -
b11000 "
b11000 '
b11000 %
#18400
b100000000 #
b100000000 -
b11001 "
b11001 '
b11001 %
#18600
b1000000 ,
b1000000 3
b1000000 4
b10000000 .
b10000000 2
b10000000 #
b10000000 -
b11010 "
b11010 '
b11010 %
#18800
b1000000 #
b1000000 -
b11011 "
b11011 '
b11011 %
#19000
b1000 *
b1000 9
b1000 :
b10000 ,
b10000 3
b10000 4
b100000 /
b100000 8
b100000 .
b100000 2
b100000 #
b100000 -
b11100 "
b11100 '
b11100 %
#19200
b10000 #
b10000 -
b11101 "
b11101 '
b11101 %
#19400
b100 ,
b100 3
b100 4
b1000 .
b1000 2
b1000 #
b1000 -
b11110 "
b11110 '
b11110 %
#19600
b100 #
b100 -
b11111 "
b11111 '
b11111 %
#19800
b0 @
b110000000000000000000000000000 )
b110000000000000000000000000000 ?
b11000000000000000000000000000000 *
b11000000000000000000000000000000 9
b0 :
b10000000000000000000000000000001 ,
b10000000000000000000000000000001 3
b1 4
b0 =
b11000000000000000000000000 (
b11000000000000000000000000 <
b11 0
b11 >
b11 /
b11 8
b11 .
b11 2
b11 #
b11 -
b11 1
b11 ;
b110000000000000000 +
b110000000000000000 6
b0 "
b0 '
b11 !
b11 $
b11 &
b11 5
b100000 %
#20000
b0 %
#20200
b10000000000000000000000000000001 #
b10000000000000000000000000000001 -
b1 "
b1 '
b1 %
#20400
b1100000000000000000000000000000 4
b1100000000000000000000000000000 ,
b1100000000000000000000000000000 3
b11000000000000000000000000000000 .
b11000000000000000000000000000000 2
b11000000000000000000000000000000 #
b11000000000000000000000000000000 -
b10 "
b10 '
b10 %
#20600
b1100000000000000000000000000000 #
b1100000000000000000000000000000 -
b11 "
b11 '
b11 %
#20800
b1100000000000000000000000000 :
b1100000000000000000000000000 *
b1100000000000000000000000000 9
b11000000000000000000000000000 4
b11000000000000000000000000000 ,
b11000000000000000000000000000 3
b110000000000000000000000000000 /
b110000000000000000000000000000 8
b110000000000000000000000000000 .
b110000000000000000000000000000 2
b110000000000000000000000000000 #
b110000000000000000000000000000 -
b100 "
b100 '
b100 %
#21000
b11000000000000000000000000000 #
b11000000000000000000000000000 -
b101 "
b101 '
b101 %
#21200
b110000000000000000000000000 ,
b110000000000000000000000000 3
b110000000000000000000000000 4
b1100000000000000000000000000 .
b1100000000000000000000000000 2
b1100000000000000000000000000 #
b1100000000000000000000000000 -
b110 "
b110 '
b110 %
#21400
b110000000000000000000000000 #
b110000000000000000000000000 -
b111 "
b111 '
b111 %
#21600
b1100000000000000000000 @
b1100000000000000000000 )
b1100000000000000000000 ?
b110000000000000000000000 :
b110000000000000000000000 *
b110000000000000000000000 9
b1100000000000000000000000 ,
b1100000000000000000000000 3
b1100000000000000000000000 4
b11000000000000000000000000 0
b11000000000000000000000000 >
b11000000000000000000000000 /
b11000000000000000000000000 8
b11000000000000000000000000 .
b11000000000000000000000000 2
b11000000000000000000000000 #
b11000000000000000000000000 -
b1000 "
b1000 '
b1000 %
#21800
b1100000000000000000000000 #
b1100000000000000000000000 -
b1001 "
b1001 '
b1001 %
#22000
b11000000000000000000000 ,
b11000000000000000000000 3
b11000000000000000000000 4
b110000000000000000000000 .
b110000000000000000000000 2
b110000000000000000000000 #
b110000000000000000000000 -
b1010 "
b1010 '
b1010 %
#22200
b11000000000000000000000 #
b11000000000000000000000 -
b1011 "
b1011 '
b1011 %
#22400
b11000000000000000000 *
b11000000000000000000 9
b11000000000000000000 :
b110000000000000000000 ,
b110000000000000000000 3
b110000000000000000000 4
b1100000000000000000000 /
b1100000000000000000000 8
b1100000000000000000000 .
b1100000000000000000000 2
b1100000000000000000000 #
b1100000000000000000000 -
b1100 "
b1100 '
b1100 %
#22600
b110000000000000000000 #
b110000000000000000000 -
b1101 "
b1101 '
b1101 %
#22800
b1100000000000000000 ,
b1100000000000000000 3
b1100000000000000000 4
b11000000000000000000 .
b11000000000000000000 2
b11000000000000000000 #
b11000000000000000000 -
b1110 "
b1110 '
b1110 %
#23000
b1100000000000000000 #
b1100000000000000000 -
b1111 "
b1111 '
b1111 %
#23200
b1100000000 =
b1100000000 (
b1100000000 <
b11000000000000 @
b11000000000000 )
b11000000000000 ?
b1100000000000000 *
b1100000000000000 9
b1100000000000000 :
b11000000000000000 ,
b11000000000000000 3
b11000000000000000 4
b110000000000000000 1
b110000000000000000 ;
b110000000000000000 0
b110000000000000000 >
b110000000000000000 /
b110000000000000000 8
b110000000000000000 .
b110000000000000000 2
b110000000000000000 #
b110000000000000000 -
b10000 "
b10000 '
b10000 %
#23400
b11000000000000000 #
b11000000000000000 -
b10001 "
b10001 '
b10001 %
#23600
b110000000000000 ,
b110000000000000 3
b110000000000000 4
b1100000000000000 .
b1100000000000000 2
b1100000000000000 #
b1100000000000000 -
b10010 "
b10010 '
b10010 %
#23800
b110000000000000 #
b110000000000000 -
b10011 "
b10011 '
b10011 %
#24000
b110000000000 *
b110000000000 9
b110000000000 :
b1100000000000 ,
b1100000000000 3
b1100000000000 4
b11000000000000 /
b11000000000000 8
b11000000000000 .
b11000000000000 2
b11000000000000 #
b11000000000000 -
b10100 "
b10100 '
b10100 %
#24200
b1100000000000 #
b1100000000000 -
b10101 "
b10101 '
b10101 %
#24400
b11000000000 ,
b11000000000 3
b11000000000 4
b110000000000 .
b110000000000 2
b110000000000 #
b110000000000 -
b10110 "
b10110 '
b10110 %
#24600
b11000000000 #
b11000000000 -
b10111 "
b10111 '
b10111 %
#24800
b110000 )
b110000 ?
b110000 @
b11000000 *
b11000000 9
b11000000 :
b110000000 ,
b110000000 3
b110000000 4
b1100000000 0
b1100000000 >
b1100000000 /
b1100000000 8
b1100000000 .
b1100000000 2
b1100000000 #
b1100000000 -
b11000 "
b11000 '
b11000 %
#25000
b110000000 #
b110000000 -
b11001 "
b11001 '
b11001 %
#25200
b1100000 ,
b1100000 3
b1100000 4
b11000000 .
b11000000 2
b11000000 #
b11000000 -
b11010 "
b11010 '
b11010 %
#25400
b1100000 #
b1100000 -
b11011 "
b11011 '
b11011 %
#25600
b1100 *
b1100 9
b1100 :
b11000 ,
b11000 3
b11000 4
b110000 /
b110000 8
b110000 .
b110000 2
b110000 #
b110000 -
b11100 "
b11100 '
b11100 %
#25800
b11000 #
b11000 -
b11101 "
b11101 '
b11101 %
#26000
b110 ,
b110 3
b110 4
b1100 .
b1100 2
b1100 #
b1100 -
b11110 "
b11110 '
b11110 %
#26200
b110 #
b110 -
b11111 "
b11111 '
b11111 %
#26400
b0 @
b1000000000000000000000000000000 )
b1000000000000000000000000000000 ?
b1 *
b1 9
b1 :
b10 ,
b10 3
b10 4
b0 =
b100000000000000000000000000 (
b100000000000000000000000000 <
b100 0
b100 >
b100 /
b100 8
b100 .
b100 2
b100 #
b100 -
b100 1
b100 ;
b1000000000000000000 +
b1000000000000000000 6
b0 "
b0 '
b100 !
b100 $
b100 &
b100 5
b100000 %
#26600
b0 %
#26800
b10 #
b10 -
b1 "
b1 '
b1 %
#27000
b0 4
b10000000000000000000000000000000 ,
b10000000000000000000000000000000 3
b1 .
b1 2
b1 #
b1 -
b10 "
b10 '
b10 %
#27200
b10000000000000000000000000000000 #
b10000000000000000000000000000000 -
b11 "
b11 '
b11 %
#27400
b10000000000000000000000000000 *
b10000000000000000000000000000 9
b10000000000000000000000000000 :
b100000000000000000000000000000 4
b100000000000000000000000000000 ,
b100000000000000000000000000000 3
b1000000000000000000000000000000 /
b1000000000000000000000000000000 8
b1000000000000000000000000000000 .
b1000000000000000000000000000000 2
b1000000000000000000000000000000 #
b1000000000000000000000000000000 -
b100 "
b100 '
b100 %
#27600
b100000000000000000000000000000 #
b100000000000000000000000000000 -
b101 "
b101 '
b101 %
#27800
b1000000000000000000000000000 ,
b1000000000000000000000000000 3
b1000000000000000000000000000 4
b10000000000000000000000000000 .
b10000000000000000000000000000 2
b10000000000000000000000000000 #
b10000000000000000000000000000 -
b110 "
b110 '
b110 %
#28000
b1000000000000000000000000000 #
b1000000000000000000000000000 -
b111 "
b111 '
b111 %
#28200
b10000000000000000000000 @
b10000000000000000000000 )
b10000000000000000000000 ?
b1000000000000000000000000 *
b1000000000000000000000000 9
b1000000000000000000000000 :
b10000000000000000000000000 ,
b10000000000000000000000000 3
b10000000000000000000000000 4
b100000000000000000000000000 0
b100000000000000000000000000 >
b100000000000000000000000000 /
b100000000000000000000000000 8
b100000000000000000000000000 .
b100000000000000000000000000 2
b100000000000000000000000000 #
b100000000000000000000000000 -
b1000 "
b1000 '
b1000 %
#28400
b10000000000000000000000000 #
b10000000000000000000000000 -
b1001 "
b1001 '
b1001 %
#28600
b100000000000000000000000 ,
b100000000000000000000000 3
b100000000000000000000000 4
b1000000000000000000000000 .
b1000000000000000000000000 2
b1000000000000000000000000 #
b1000000000000000000000000 -
b1010 "
b1010 '
b1010 %
#28800
b100000000000000000000000 #
b100000000000000000000000 -
b1011 "
b1011 '
b1011 %
#29000
b100000000000000000000 *
b100000000000000000000 9
b100000000000000000000 :
b1000000000000000000000 ,
b1000000000000000000000 3
b1000000000000000000000 4
b10000000000000000000000 /
b10000000000000000000000 8
b10000000000000000000000 .
b10000000000000000000000 2
b10000000000000000000000 #
b10000000000000000000000 -
b1100 "
b1100 '
b1100 %
#29200
b1000000000000000000000 #
b1000000000000000000000 -
b1101 "
b1101 '
b1101 %
#29400
b10000000000000000000 ,
b10000000000000000000 3
b10000000000000000000 4
b100000000000000000000 .
b100000000000000000000 2
b100000000000000000000 #
b100000000000000000000 -
b1110 "
b1110 '
b1110 %
#29600
b10000000000000000000 #
b10000000000000000000 -
b1111 "
b1111 '
b1111 %
#29800
b10000000000 =
b10000000000 (
b10000000000 <
b100000000000000 @
b100000000000000 )
b100000000000000 ?
b10000000000000000 *
b10000000000000000 9
b10000000000000000 :
b100000000000000000 ,
b100000000000000000 3
b100000000000000000 4
b1000000000000000000 1
b1000000000000000000 ;
b1000000000000000000 0
b1000000000000000000 >
b1000000000000000000 /
b1000000000000000000 8
b1000000000000000000 .
b1000000000000000000 2
b1000000000000000000 #
b1000000000000000000 -
b10000 "
b10000 '
b10000 %
#30000
b100000000000000000 #
b100000000000000000 -
b10001 "
b10001 '
b10001 %
#30200
b1000000000000000 ,
b1000000000000000 3
b1000000000000000 4
b10000000000000000 .
b10000000000000000 2
b10000000000000000 #
b10000000000000000 -
b10010 "
b10010 '
b10010 %
#30400
b1000000000000000 #
b1000000000000000 -
b10011 "
b10011 '
b10011 %
#30600
b1000000000000 *
b1000000000000 9
b1000000000000 :
b10000000000000 ,
b10000000000000 3
b10000000000000 4
b100000000000000 /
b100000000000000 8
b100000000000000 .
b100000000000000 2
b100000000000000 #
b100000000000000 -
b10100 "
b10100 '
b10100 %
#30800
b10000000000000 #
b10000000000000 -
b10101 "
b10101 '
b10101 %
#31000
b100000000000 ,
b100000000000 3
b100000000000 4
b1000000000000 .
b1000000000000 2
b1000000000000 #
b1000000000000 -
b10110 "
b10110 '
b10110 %
#31200
b100000000000 #
b100000000000 -
b10111 "
b10111 '
b10111 %
#31400
b1000000 )
b1000000 ?
b1000000 @
b100000000 *
b100000000 9
b100000000 :
b1000000000 ,
b1000000000 3
b1000000000 4
b10000000000 0
b10000000000 >
b10000000000 /
b10000000000 8
b10000000000 .
b10000000000 2
b10000000000 #
b10000000000 -
b11000 "
b11000 '
b11000 %
#31600
b1000000000 #
b1000000000 -
b11001 "
b11001 '
b11001 %
#31800
b10000000 ,
b10000000 3
b10000000 4
b100000000 .
b100000000 2
b100000000 #
b100000000 -
b11010 "
b11010 '
b11010 %
#32000
b10000000 #
b10000000 -
b11011 "
b11011 '
b11011 %
#32200
b10000 *
b10000 9
b10000 :
b100000 ,
b100000 3
b100000 4
b1000000 /
b1000000 8
b1000000 .
b1000000 2
b1000000 #
b1000000 -
b11100 "
b11100 '
b11100 %
#32400
b100000 #
b100000 -
b11101 "
b11101 '
b11101 %
#32600
b1000 ,
b1000 3
b1000 4
b10000 .
b10000 2
b10000 #
b10000 -
b11110 "
b11110 '
b11110 %
#32800
b1000 #
b1000 -
b11111 "
b11111 '
b11111 %
#33000
b0 @
b1010000000000000000000000000000 )
b1010000000000000000000000000000 ?
b1000000000000000000000000000001 *
b1000000000000000000000000000001 9
b1 :
b10000000000000000000000000000010 ,
b10000000000000000000000000000010 3
b10 4
b0 =
b101000000000000000000000000 (
b101000000000000000000000000 <
b101 0
b101 >
b101 /
b101 8
b101 .
b101 2
b101 #
b101 -
b101 1
b101 ;
b1010000000000000000 +
b1010000000000000000 6
b0 "
b0 '
b101 !
b101 $
b101 &
b101 5
b100000 %
#33200
b0 %
#33400
b10000000000000000000000000000010 #
b10000000000000000000000000000010 -
b1 "
b1 '
b1 %
#33600
b10100000000000000000000000000000 ,
b10100000000000000000000000000000 3
b100000000000000000000000000000 4
b1000000000000000000000000000001 .
b1000000000000000000000000000001 2
b1000000000000000000000000000001 #
b1000000000000000000000000000001 -
b10 "
b10 '
b10 %
#33800
b10100000000000000000000000000000 #
b10100000000000000000000000000000 -
b11 "
b11 '
b11 %
#34000
b10100000000000000000000000000 :
b10100000000000000000000000000 *
b10100000000000000000000000000 9
b101000000000000000000000000000 ,
b101000000000000000000000000000 3
b101000000000000000000000000000 4
b1010000000000000000000000000000 /
b1010000000000000000000000000000 8
b1010000000000000000000000000000 .
b1010000000000000000000000000000 2
b1010000000000000000000000000000 #
b1010000000000000000000000000000 -
b100 "
b100 '
b100 %
#34200
b101000000000000000000000000000 #
b101000000000000000000000000000 -
b101 "
b101 '
b101 %
#34400
b1010000000000000000000000000 ,
b1010000000000000000000000000 3
b1010000000000000000000000000 4
b10100000000000000000000000000 .
b10100000000000000000000000000 2
b10100000000000000000000000000 #
b10100000000000000000000000000 -
b110 "
b110 '
b110 %
#34600
b1010000000000000000000000000 #
b1010000000000000000000000000 -
b111 "
b111 '
b111 %
#34800
b10100000000000000000000 @
b10100000000000000000000 )
b10100000000000000000000 ?
b1010000000000000000000000 :
b1010000000000000000000000 *
b1010000000000000000000000 9
b10100000000000000000000000 ,
b10100000000000000000000000 3
b10100000000000000000000000 4
b101000000000000000000000000 0
b101000000000000000000000000 >
b101000000000000000000000000 /
b101000000000000000000000000 8
b101000000000000000000000000 .
b101000000000000000000000000 2
b101000000000000000000000000 #
b101000000000000000000000000 -
b1000 "
b1000 '
b1000 %
#35000
b10100000000000000000000000 #
b10100000000000000000000000 -
b1001 "
b1001 '
b1001 %
#35200
b101000000000000000000000 ,
b101000000000000000000000 3
b101000000000000000000000 4
b1010000000000000000000000 .
b1010000000000000000000000 2
b1010000000000000000000000 #
b1010000000000000000000000 -
b1010 "
b1010 '
b1010 %
#35400
b101000000000000000000000 #
b101000000000000000000000 -
b1011 "
b1011 '
b1011 %
#35600
b101000000000000000000 *
b101000000000000000000 9
b101000000000000000000 :
b1010000000000000000000 ,
b1010000000000000000000 3
b1010000000000000000000 4
b10100000000000000000000 /
b10100000000000000000000 8
b10100000000000000000000 .
b10100000000000000000000 2
b10100000000000000000000 #
b10100000000000000000000 -
b1100 "
b1100 '
b1100 %
#35800
b1010000000000000000000 #
b1010000000000000000000 -
b1101 "
b1101 '
b1101 %
#36000
b10100000000000000000 ,
b10100000000000000000 3
b10100000000000000000 4
b101000000000000000000 .
b101000000000000000000 2
b101000000000000000000 #
b101000000000000000000 -
b1110 "
b1110 '
b1110 %
#36200
b10100000000000000000 #
b10100000000000000000 -
b1111 "
b1111 '
b1111 %
#36400
b10100000000 =
b10100000000 (
b10100000000 <
b101000000000000 @
b101000000000000 )
b101000000000000 ?
b10100000000000000 *
b10100000000000000 9
b10100000000000000 :
b101000000000000000 ,
b101000000000000000 3
b101000000000000000 4
b1010000000000000000 1
b1010000000000000000 ;
b1010000000000000000 0
b1010000000000000000 >
b1010000000000000000 /
b1010000000000000000 8
b1010000000000000000 .
b1010000000000000000 2
b1010000000000000000 #
b1010000000000000000 -
b10000 "
b10000 '
b10000 %
#36600
b101000000000000000 #
b101000000000000000 -
b10001 "
b10001 '
b10001 %
